Lab3
…
data$export <- export$row_sum
data$import <- import$row_sum
data <- data %>% rename(region = '' )
print(data)

## # A tibble: 96 x 15
##    region            
##    <chr>              <dbl>      <dbl>      <dbl>     <dbl>      <dbl>     <dbl>
##  1  ~     16196.     43076.    371792.     3614.     30739.    50130. 
##  2 ~      4553.     22954.    204332.     1660.      8443.    34870. 
##  3 ~       222.       614.        64.7      24.1       33.3     243. 
##  4  ~        28.5      650.         5        20.5       24.5      71.7
##  5 ~       178.       454.         0.9      16.7       87.7     419  
##  6 ~       374.       182.        38.9      38        977.       84.9
##  7  ~         3.1      106.         0.1       0.1       40.8      57.4
##  8  ~        20.9      185.        14        57.9       54.9     370. 
##  9 ~         0.7        6.8        0         0         19.3      10.2
## 10  ~       140.       219.         0        17.7       77.2     118. 
## # ... with 86 more rows, and 8 more variables:  <dbl>,
## #    <dbl>,  <dbl>,  <dbl>,  <dbl>,
## #    <dbl>, export <dbl>, import <dbl>
…
